{
  "phase": {
    "1": {
        "name": "GATEWAY",
        "type": "structure",
        "structure": false,
        "requirement": false,
        "supply": 16
    },
    "2": {
        "name": "CYBERNETICSCORE",
        "type": "structure",
        "structure": false,
        "requirement": "GATEWAY",
        "supply": 19
    },
    "3": {
        "name": "GATEWAY",
        "type": "structure",
        "structure": false,
        "requirement": false,
        "supply": 20
    },
    "4": {
        "name": "SHIELDBATTERY",
        "type": "structure",
        "structure": false,
        "requirement": "CYBERNETICSCORE",
        "supply": 20
    },
    "5": {
        "name": "TWILIGHTCOUNCIL",
        "type": "structure",
        "structure": false,
        "requirement": "CYBERNETICSCORE",
        "supply": 20
    },
    "6": {
        "name": "FORGE",
        "type": "structure",
        "structure": false,
        "requirement": false,
        "supply": 20
    },
    "7": {
        "name": "PHOTONCANNON",
        "type": "structure",
        "structure": false,
        "requirement": "FORGE",
        "supply": 20
    },
    "8": {
        "name": "ROBOTICSFACILITY",
        "type": "structure",
        "structure": false,
        "requirement": "CYBERNETICSCORE",
        "supply": 20
    },
    "9": {
        "name": "DARKSHRINE",
        "type": "structure",
        "structure": false,
        "requirement": "TWILIGHTCOUNCIL",
        "supply": 20
    },
    "10": {
        "name": "ROBOTICSBAY",
        "type": "structure",
        "structure": false,
        "requirement": "ROBOTICSFACILITY",
        "supply": 20
    },
    "11": {
        "name": "END",
        "type": "false",
        "structure": false,
        "requirement": false,
        "supply": false
    }
 }
}