{
  "unit": {
    "1": {
        "name": "ZEALOT",
        "structure": "GATEWAY",
        "count": 2,
        "requirement": ""
    },
    "2": {
        "name": "DARKTEMPLAR",
        "structure": "WARPGATE",
        "count": 5,
        "requirement": "DARKSHRINE"
    },
    "3": {
        "name": "STALKER",
        "structure": "GATEWAY",
        "count": 8,
        "requirement": "CYBERNETICSCORE"
    },
    "4": {
        "name": "STALKER",
        "structure": "WARPGATE",
        "count": 8,
        "requirement": "CYBERNETICSCORE"
    },
    "5": {
        "name": "SENTRY",
        "structure": "GATEWAY",
        "count": 1,
        "requirement": "CYBERNETICSCORE"
    },
    "6": {
        "name": "SENTRY",
        "structure": "WARPGATE",
        "count": 3,
        "requirement": "CYBERNETICSCORE"
    },
    "7": {
        "name": "IMMORTAL",
        "structure": "ROBOTICSFACILITY",
        "count": 3,
        "requirement": false
    },
    "8": {
        "name": "COLOSSUS",
        "structure": "ROBOTICSFACILITY",
        "count": 3,
        "requirement": "ROBOTICSBAY"
    }
  }
}